{
  "data": [
    {
      "id": "102",
      "name": "Avocado",
      "price": "7",
      "packaging": "Punnet"
    },
    {
      "id": "66",
      "name": "Baby Marrows",
      "price": "14",
      "packaging": "500g punnet,4kg box,8kg box,10kg box"
    },
    {
      "id": "65",
      "name": "Baby Potato",
      "price": "12",
      "packaging": "1kg,3kg,5kg"
    },
    {
      "id": "31",
      "name": "Basil",
      "price": "30",
      "packaging": "200g packet,3kg box"
    },
    {
      "id": "68",
      "name": "Beetroot Dark",
      "price": "12",
      "packaging": "1kg bag,3kg pocket,5kg pocket,10kg pocket"
    },
    {
      "id": "69",
      "name": "Beetroot Mixed Color",
      "price": "12",
      "packaging": "kg,1kg bag,3kg pocket,5kg pocket,10kg pocket"
    },
    {
      "id": "53",
      "name": "Black Kale",
      "price": "12",
      "packaging": "bunches"
    },
    {
      "id": "52",
      "name": "Bok Choy",
      "price": "0",
      "packaging": "300g punnet,5kg box"
    },
    {
      "id": "70",
      "name": "Brinjals each",
      "price": "4",
      "packaging": "1kg bag,3kg pocket,5kg box"
    },
    {
      "id": "3",
      "name": "Broccoli",
      "price": "12",
      "packaging": "head (loose) punnet,box (8)"
    },
    {
      "id": "71",
      "name": "Broccoli Green Sprouting",
      "price": "12",
      "packaging": "loose, box (8)"
    },
    {
      "id": "72",
      "name": "Broccoli leaves",
      "price": "0",
      "packaging": "kg,8kg box"
    },
    {
      "id": "46",
      "name": "Broiler Chicken",
      "price": "39",
      "packaging": ""
    },
    {
      "id": "60",
      "name": "Butter Lettuce",
      "price": "15",
      "packaging": "head (loose),punnet"
    },
    {
      "id": "73",
      "name": "Butternut",
      "price": "10",
      "packaging": "unit, pack (7)"
    },
    {
      "id": "92",
      "name": "Button Mushroom",
      "price": "23",
      "packaging": ""
    },
    {
      "id": "17",
      "name": "Cabbage",
      "price": "12",
      "packaging": "head (loose),4kg box,10kg box"
    },
    {
      "id": "74",
      "name": "Cabbage Baby",
      "price": "8",
      "packaging": "200g punnet,250g punnet"
    },
    {
      "id": "1",
      "name": "Carrots",
      "price": "10",
      "packaging": "kg,1kg bag,3kg pocket,5kg pocket,10kg pocket"
    },
    {
      "id": "75",
      "name": "Carrots Mixed Colors",
      "price": "10",
      "packaging": "kg,1kg bag,3kg pocket,5kg pocket,10kg pocket"
    },
    {
      "id": "118",
      "name": "Cashew Nuts",
      "price": "0",
      "packaging": ""
    },
    {
      "id": "76",
      "name": "Cauliflower",
      "price": "8",
      "packaging": "500g punnet,5kg box,10kg box"
    },
    {
      "id": "18",
      "name": "Celery",
      "price": "15",
      "packaging": "bundle,300g punnet,12kg box"
    },
    {
      "id": "2",
      "name": "Chillie",
      "price": "20",
      "packaging": "200g punnet,2kg tray,2kg pocket,5kg pocket,18kg bag"
    },
    {
      "id": "33",
      "name": "Chinese Cabbage",
      "price": "15",
      "packaging": "head (loose)"
    },
    {
      "id": "77",
      "name": "Chives",
      "price": "20",
      "packaging": "100g packet,2kg box"
    },
    {
      "id": "32",
      "name": "Chomolia",
      "price": "15",
      "packaging": "bunches"
    },
    {
      "id": "110",
      "name": "Coconut",
      "price": "10",
      "packaging": "loose, box"
    },
    {
      "id": "112",
      "name": "Collard Greens",
      "price": "0",
      "packaging": ""
    },
    {
      "id": "78",
      "name": "Coriander",
      "price": "15",
      "packaging": "40 packet,200g packet,3kg box"
    },
    {
      "id": "59",
      "name": "Cos Lettuce",
      "price": "15",
      "packaging": "head (loose),punnet,box (8)"
    },
    {
      "id": "79",
      "name": "Cucumber",
      "price": "10",
      "packaging": "unit,kg,5kg box,10kg pocket"
    },
    {
      "id": "80",
      "name": "Cucumber",
      "price": "10",
      "packaging": "unit,kg,5kg box,10kg pocket"
    },
    {
      "id": "8",
      "name": "Egg Plant",
      "price": "10",
      "packaging": "unit, kg"
    },
    {
      "id": "50",
      "name": "Eggs",
      "price": "0",
      "packaging": ""
    },
    {
      "id": "19",
      "name": "Elder Flower",
      "price": "0",
      "packaging": "40g packet,200g packet,3kg box"
    },
    {
      "id": "119",
      "name": "fennel",
      "price": "20",
      "packaging": "150g, 500g, 1kg"
    },
    {
      "id": "90",
      "name": "Garlic 100g",
      "price": "20",
      "packaging": "pack"
    },
    {
      "id": "91",
      "name": "Garlic 50g",
      "price": "12",
      "packaging": "pack"
    },
    {
      "id": "95",
      "name": "Gem Squash",
      "price": "10",
      "packaging": ""
    },
    {
      "id": "113",
      "name": "Giant Rape",
      "price": "0",
      "packaging": ""
    },
    {
      "id": "5",
      "name": "Green Beans",
      "price": "16",
      "packaging": "kg ,200g punnet,800g punnet,5kg box"
    },
    {
      "id": "122",
      "name": "Green Chillies",
      "price": "25",
      "packaging": "kg"
    },
    {
      "id": "101",
      "name": "Green Pepper",
      "price": "3",
      "packaging": "EACH"
    },
    {
      "id": "115",
      "name": "Habanero Chillies",
      "price": "0",
      "packaging": ""
    },
    {
      "id": "49",
      "name": "Heirloom Tomato",
      "price": "0",
      "packaging": ""
    },
    {
      "id": "64",
      "name": "Iceberg Lettuce",
      "price": "12",
      "packaging": "head (loose),punnet,box (8)"
    },
    {
      "id": "98",
      "name": "Jalepeno",
      "price": "25",
      "packaging": "KG"
    },
    {
      "id": "38",
      "name": "Kale",
      "price": "15",
      "packaging": "bunches"
    },
    {
      "id": "81",
      "name": "Kohlrabi",
      "price": "0",
      "packaging": ""
    },
    {
      "id": "105",
      "name": "Leeks",
      "price": "12",
      "packaging": "500g"
    },
    {
      "id": "22",
      "name": "Lemon Balm",
      "price": "0",
      "packaging": "40g packet,200g packet,3kg box"
    },
    {
      "id": "100",
      "name": "Lemon Grass",
      "price": "0",
      "packaging": ""
    },
    {
      "id": "24",
      "name": "Lemon Verbena",
      "price": "15",
      "packaging": "40g packet,200g packet,3kg box"
    },
    {
      "id": "16",
      "name": "Lemons",
      "price": "20",
      "packaging": "unit,kg,2kg pocket,5kg pocket,10kg pocket"
    },
    {
      "id": "34",
      "name": "Lettuce",
      "price": "10",
      "packaging": ""
    },
    {
      "id": "123",
      "name": "Limes",
      "price": "8",
      "packaging": "tons, kg, 5kg box"
    },
    {
      "id": "7",
      "name": "Maize",
      "price": "0",
      "packaging": ""
    },
    {
      "id": "27",
      "name": "Maize",
      "price": "0",
      "packaging": ""
    },
    {
      "id": "83",
      "name": "Mizuna",
      "price": "0",
      "packaging": ""
    },
    {
      "id": "36",
      "name": "Moringa",
      "price": "400",
      "packaging": ""
    },
    {
      "id": "15",
      "name": "Mustard Spinach",
      "price": "12",
      "packaging": "bunches"
    },
    {
      "id": "26",
      "name": "Nasturtiums",
      "price": "0",
      "packaging": "40g packet,200g packet,3kg box"
    },
    {
      "id": "82",
      "name": "Oakleaf Lettuce",
      "price": "0",
      "packaging": "head (loose),punnet,box (8)"
    },
    {
      "id": "6",
      "name": "Onion",
      "price": "13",
      "packaging": "kg (loose),1kg pocket,2kg pocket,6 kg pocket,10kg pocket"
    },
    {
      "id": "62",
      "name": "Oranges",
      "price": "20",
      "packaging": "unit (loose),1kg,5kg,10kg"
    },
    {
      "id": "93",
      "name": "Oyster Mushroom",
      "price": "0",
      "packaging": ""
    },
    {
      "id": "37",
      "name": "Oyster Mushrooms",
      "price": "0",
      "packaging": "100g,250g,kg"
    },
    {
      "id": "23",
      "name": "Parsley",
      "price": "15",
      "packaging": "40g packet,200g packet,3kg box"
    },
    {
      "id": "97",
      "name": "Patty Pans",
      "price": "13",
      "packaging": "punnet box 300g"
    },
    {
      "id": "48",
      "name": "Peppadew",
      "price": "0",
      "packaging": "kg (loose),1kg packet,3kg box,5kg box,10kg box"
    },
    {
      "id": "9",
      "name": "Pepper",
      "price": "14",
      "packaging": "600g punnet ,5kg box"
    },
    {
      "id": "51",
      "name": "Pica Nuts",
      "price": "0",
      "packaging": "1kg pocket,1kg box"
    },
    {
      "id": "103",
      "name": "Potato",
      "price": "0",
      "packaging": "Brown paper bag, 1kg net bag, 10kg bag"
    },
    {
      "id": "10",
      "name": "Pumpkin",
      "price": "15",
      "packaging": "unit,sugar pocket"
    },
    {
      "id": "4",
      "name": "Radish",
      "price": "20",
      "packaging": "200g punnet,3kg box,5kg box"
    },
    {
      "id": "47",
      "name": "Rainbow Maize",
      "price": "0",
      "packaging": ""
    },
    {
      "id": "120",
      "name": "Red Cabbage",
      "price": "16",
      "packaging": "unit, box(8)"
    },
    {
      "id": "121",
      "name": "Red Chillies",
      "price": "25",
      "packaging": "kg"
    },
    {
      "id": "117",
      "name": "Red Clover",
      "price": "0",
      "packaging": ""
    },
    {
      "id": "58",
      "name": "Red Oak Lettuce",
      "price": "15",
      "packaging": "head (loose),punnet,box (8)"
    },
    {
      "id": "99",
      "name": "Red Onion",
      "price": "13",
      "packaging": "kg"
    },
    {
      "id": "109",
      "name": "red pepper",
      "price": "7",
      "packaging": "each loose"
    },
    {
      "id": "116",
      "name": "Red Thai Chillies",
      "price": "25",
      "packaging": "1kg"
    },
    {
      "id": "30",
      "name": "Rocket",
      "price": "35",
      "packaging": "40g packet,200g packet,3kg box"
    },
    {
      "id": "25",
      "name": "Rosemary",
      "price": "0",
      "packaging": "40g packet,200g packet,3kg box"
    },
    {
      "id": "20",
      "name": "Sage",
      "price": "0",
      "packaging": "40g packet,200g packet,3kg box"
    },
    {
      "id": "114",
      "name": "Serrano Chillies",
      "price": "0",
      "packaging": ""
    },
    {
      "id": "54",
      "name": "Sparkler Radish",
      "price": "0",
      "packaging": "200g punnet,3kg box,5kg box"
    },
    {
      "id": "28",
      "name": "Spearmint",
      "price": "0",
      "packaging": "40 packet,200g packet,3kg box"
    },
    {
      "id": "35",
      "name": "Spinach",
      "price": "8",
      "packaging": "bunches"
    },
    {
      "id": "84",
      "name": "Spinach Swiss Chard Colored",
      "price": "15",
      "packaging": "bunches"
    },
    {
      "id": "14",
      "name": "Spring Onions",
      "price": "14",
      "packaging": "bunches"
    },
    {
      "id": "44",
      "name": "Sweet Potato",
      "price": "15",
      "packaging": "kg (loose),1kg,5kg,10kg"
    },
    {
      "id": "96",
      "name": "test",
      "price": "0",
      "packaging": "test"
    },
    {
      "id": "29",
      "name": "Thyme",
      "price": "20",
      "packaging": "40g packet,250g packet,3kg box, 750g"
    },
    {
      "id": "56",
      "name": "Tomato",
      "price": "12",
      "packaging": "kg (loose),1kg packet,3kg box,5kg box,10kg box"
    },
    {
      "id": "86",
      "name": "Tomato Moneymaker",
      "price": "0",
      "packaging": "kg (loose),1kg packet,3kg box,5kg box,10kg box"
    },
    {
      "id": "85",
      "name": "Tomatoes Cherry",
      "price": "0",
      "packaging": "200g punnet,500g punnet,1kg packet,5kg box,10kg box"
    },
    {
      "id": "87",
      "name": "Tomatoes Oxheart",
      "price": "0",
      "packaging": "kg (loose),1kg packet,3kg box,5kg box,10kg box"
    },
    {
      "id": "88",
      "name": "Turnip",
      "price": "8",
      "packaging": "200g punnet,5kg box,10kg pocket"
    },
    {
      "id": "107",
      "name": "white cabbage",
      "price": "13",
      "packaging": "loose"
    },
    {
      "id": "55",
      "name": "White Icicle Radish",
      "price": "0",
      "packaging": "200g punnet,3kg box,5kg box,"
    },
    {
      "id": "106",
      "name": "Wild Rocket",
      "price": "10",
      "packaging": "500g"
    },
    {
      "id": "108",
      "name": "yellow pepper",
      "price": "7",
      "packaging": "loose"
    }
  ]
}